Design and extensibility considerations | sits: Satellite Image Time Series Analysis on Earth Observation Data Cubes
…
The time series tibble contains data and metadata. The first six columns contain spatial and temporal information, the label assigned to the sample, and the data cube from where the data has been extracted. The time_series column contains the time series data for each spatiotemporal location. This data is also organized as a tibble, with a column with the dates and the other columns with the values for each spectral band.

# print the first 6 columns of a time series tibble
library(sitsdata)
samples_cerrado_mod13q1[, 1:6]

#> # A tibble: 50,160 × 6
#>    latitude longitude start_date end_date   label   cube   
#>       <dbl>     <dbl> <date>     <date>     <chr>   <chr>  
#>  1    -16.2     -54.5 2018-09-01 2019-09-01 Pasture MOD13Q1
#>  2    -16.2     -54.5 2018-09-01 2019-09-01 Pasture MOD13Q1
#>  3    -16.2     -54.5 2018-09-01 2019-09-01 Pasture MOD13Q1
#>  4    -16.2     -54.5 2018-09-01 2019-09-01 Pasture MOD13Q1
#>  5    -16.2     -54.5 2018-09-01 2019-09-01 Pasture MOD13Q1
#>  6    -16.2     -54.5 2018-09-01 2019-09-01 Pasture MOD13Q1
#>  7    -16.2     -54.4 2018-09-01 2019-09-01 Pasture MOD13Q1
#>  8    -16.2     -54.5 2018-09-01 2019-09-01 Pasture MOD13Q1
#>  9    -16.1     -54.7 2018-09-01 2019-09-01 Pasture MOD13Q1
#> 10    -16.2     -54.7 2018-09-01 2019-09-01 Pasture MOD13Q1
#> # … with 50,150 more rows

# print the time series associated to the first location of a tibble
samples_cerrado_mod13q1$time_series[[1]]

#> # A tibble: 23 × 5
#>    Index       NDVI   EVI   NIR    MIR
#>    <date>     <dbl> <dbl> <dbl>  <dbl>
#>  1 2018-09-14 0.500 0.293 0.263 0.212 
#>  2 2018-09-30 0.506 0.284 0.262 0.173 
#>  3 2018-10-16 0.508 0.385 0.386 0.218 
#>  4 2018-11-01 0.714 0.532 0.410 0.142 
#>  5 2018-11-17 0.426 0.344 0.420 0.237 
#>  6 2018-12-03 0.668 0.412 0.300 0.117 
#>  7 2018-12-19 0.684 0.440 0.323 0.152 
#>  8 2019-01-01 0.719 0.462 0.325 0.0874
#>  9 2019-01-17 0.610 0.430 0.374 0.146 
#> 10 2019-02-02 0.664 0.381 0.276 0.0936
#> # … with 13 more rows
…
